{
  "id": "5159f4bf-d7cb-485f-866e-b8d1a206a501",
  "userId": "3053c8b6-3fc5-4dff-a599-9656d2b0f8db",
  "walletId": "d37233ce-e4f2-4c24-af1e-10ec74cf5ba3",
  "status": "available",
  "createdAt": "2018-07-27T02:04:25.463Z",
  "updatedAt": "2018-07-27T02:04:25.463Z",
  "virtual": true
}